%YAML 1.1
%TAG !u! tag:unity3d.com,2011:
--- !u!1001 &100100000
Prefab:
  m_ObjectHideFlags: 1
  serializedVersion: 2
  m_Modification:
    m_TransformParent: {fileID: 0}
    m_Modifications: []
    m_RemovedComponents: []
  m_ParentPrefab: {fileID: 0}
  m_RootGameObject: {fileID: 1453333928809840}
  m_IsPrefabParent: 1
--- !u!1 &1453333928809840
GameObject:
  m_ObjectHideFlags: 0
  m_PrefabParentObject: {fileID: 0}
  m_PrefabInternal: {fileID: 100100000}
  serializedVersion: 5
  m_Component:
  - component: {fileID: 4061900764379964}
  - component: {fileID: 212215040327508702}
  - component: {fileID: 114357684353984652}
  - component: {fileID: 54588016026907094}
  - component: {fileID: 135531289813034360}
  m_Layer: 0
  m_Name: LayedEgg
  m_TagString: Egg
  m_Icon: {fileID: 0}
  m_NavMeshLayer: 0
  m_StaticEditorFlags: 0
  m_IsActive: 1
--- !u!4 &4061900764379964
Transform:
  m_ObjectHideFlags: 1
  m_PrefabParentObject: {fileID: 0}
  m_PrefabInternal: {fileID: 100100000}
  m_GameObject: {fileID: 1453333928809840}
  m_LocalRotation: {x: 0, y: 0, z: 0, w: 1}
  m_LocalPosition: {x: -1.3525838, y: 0.47, z: -9.009507}
  m_LocalScale: {x: 0.48187107, y: 0.4818712, z: 0.4818712}
  m_Children: []
  m_Father: {fileID: 0}
  m_RootOrder: 0
  m_LocalEulerAnglesHint: {x: 0, y: 0, z: 0}
--- !u!54 &54588016026907094
Rigidbody:
  m_ObjectHideFlags: 1
  m_PrefabParentObject: {fileID: 0}
  m_PrefabInternal: {fileID: 100100000}
  m_GameObject: {fileID: 1453333928809840}
  serializedVersion: 2
  m_Mass: 1
  m_Drag: 0
  m_AngularDrag: 0.05
  m_UseGravity: 0
  m_IsKinematic: 1
  m_Interpolate: 0
  m_Constraints: 0
  m_CollisionDetection: 0
--- !u!114 &114357684353984652
MonoBehaviour:
  m_ObjectHideFlags: 1
  m_PrefabParentObject: {fileID: 0}
  m_PrefabInternal: {fileID: 100100000}
  m_GameObject: {fileID: 1453333928809840}
  m_Enabled: 1
  m_EditorHideFlags: 0
  m_Script: {fileID: 11500000, guid: db18cac9722543742afedf0826901ea3, type: 3}
  m_Name: 
  m_EditorClassIdentifier: 
  heat: 50
  coolRate: 5
  pointValue: 5
  eggState: 3
  badEggDestroyValue: -50
  healthyColor:
    serializedVersion: 2
    rgba: 4294967295
  spoiledColor:
    serializedVersion: 2
    rgba: 4284637844
  goodEgg: {fileID: 21300026, guid: 78e0164d9ab8e6249bca0ee9782f8fb4, type: 3}
  badEgg: {fileID: 21300022, guid: 78e0164d9ab8e6249bca0ee9782f8fb4, type: 3}
  hatchEgg: {fileID: 21300020, guid: 78e0164d9ab8e6249bca0ee9782f8fb4, type: 3}
  eggSpawnerTag: NewEggSpawner
  monsterSpawnerTag: MonsterSpawner
  monsterSpawner: {fileID: 0}
  eggSpawner: {fileID: 0}
  hatchedEggPrefab: {fileID: 1155929538931110, guid: fe74a9b87d147e64ab5fe94d1eec276a,
    type: 2}
  badEggSound: {fileID: 1791825569867098, guid: f344fa8ced6ac3a44b97eccb28396774,
    type: 2}
--- !u!135 &135531289813034360
SphereCollider:
  m_ObjectHideFlags: 1
  m_PrefabParentObject: {fileID: 0}
  m_PrefabInternal: {fileID: 100100000}
  m_GameObject: {fileID: 1453333928809840}
  m_Material: {fileID: 0}
  m_IsTrigger: 0
  m_Enabled: 1
  serializedVersion: 2
  m_Radius: 0.73
  m_Center: {x: 0, y: 0, z: 0}
--- !u!212 &212215040327508702
SpriteRenderer:
  m_ObjectHideFlags: 1
  m_PrefabParentObject: {fileID: 0}
  m_PrefabInternal: {fileID: 100100000}
  m_GameObject: {fileID: 1453333928809840}
  m_Enabled: 1
  m_CastShadows: 0
  m_ReceiveShadows: 0
  m_DynamicOccludee: 1
  m_MotionVectors: 1
  m_LightProbeUsage: 1
  m_ReflectionProbeUsage: 1
  m_Materials:
  - {fileID: 2100000, guid: f06d4cadf83d95545990e22bd562f8ee, type: 2}
  m_StaticBatchInfo:
    firstSubMesh: 0
    subMeshCount: 0
  m_StaticBatchRoot: {fileID: 0}
  m_ProbeAnchor: {fileID: 0}
  m_LightProbeVolumeOverride: {fileID: 0}
  m_ScaleInLightmap: 1
  m_PreserveUVs: 0
  m_IgnoreNormalsForChartDetection: 0
  m_ImportantGI: 0
  m_StitchLightmapSeams: 0
  m_SelectedEditorRenderState: 0
  m_MinimumChartSize: 4
  m_AutoUVMaxDistance: 0.5
  m_AutoUVMaxAngle: 89
  m_LightmapParameters: {fileID: 0}
  m_SortingLayerID: 0
  m_SortingLayer: 0
  m_SortingOrder: 0
  m_Sprite: {fileID: 21300026, guid: 78e0164d9ab8e6249bca0ee9782f8fb4, type: 3}
  m_Color: {r: 1, g: 1, b: 1, a: 1}
  m_FlipX: 0
  m_FlipY: 0
  m_DrawMode: 0
  m_Size: {x: 0.5, y: 0.5}
  m_AdaptiveModeThreshold: 0.5
  m_SpriteTileMode: 0
  m_WasSpriteAssigned: 1
  m_MaskInteraction: 0
